@startuml
hide footbox
actor Client2
actor Client1
actor CoffeeSeller
actor CoffeeMaker

Client1 -> CoffeeSeller: I’ll have an espresso
activate CoffeeSeller
CoffeeSeller -> CoffeeMaker: 1 espresso
deactivate CoffeeSeller
activate CoffeeMaker
Client2 -> CoffeeSeller: I’ll have a ristretto
activate CoffeeSeller
deactivate CoffeeSeller
||10||
CoffeeMaker --> CoffeeSeller: done for client1
deactivate CoffeeMaker
activate CoffeeSeller
CoffeeSeller --> Client1: enjoy!
CoffeeSeller -> CoffeeMaker: 1 ristretto
deactivate CoffeeSeller
activate CoffeeMaker
||70||
CoffeeMaker --> CoffeeSeller: done for client2
deactivate CoffeeMaker
activate CoffeeSeller
CoffeeSeller --> Client2: enjoy!
deactivate CoffeeSeller
@enduml