@startuml
hide footbox
actor Client2
actor Client1
actor CoffeeSeller
actor CoffeeMaker

Client1 -> CoffeeSeller: I’ll have an espresso
activate CoffeeSeller
CoffeeSeller -> CoffeeMaker: 1 espresso
activate CoffeeMaker
||70||
CoffeeMaker --> CoffeeSeller: done
deactivate CoffeeMaker
CoffeeSeller --> Client1: enjoy!
deactivate CoffeeSeller
Client2 -> CoffeeSeller: I’ll have a ristretto
activate CoffeeSeller
CoffeeSeller -> CoffeeMaker: 1 ristretto
activate CoffeeMaker
||70||
CoffeeMaker --> CoffeeSeller: done
deactivate CoffeeMaker
CoffeeSeller --> Client2: enjoy!
deactivate CoffeeSeller
@enduml